{
    "step1": [
        {
            "id": "@labelWitness",
            "type": "Title",
            "urlPreload": "",
            "extras": {
                "title": "Información del usuario herido",
                "subTitle": ""
            }
        },
        {
            "id": "@radioButtonWitness",
            "type": "RadioButton",
            "urlPreload": "",
            "extras": {
                "validators" : [
                    "required"
                ],
                "options": [
                    {
                        "key": "Y",
                        "value": "Si"
                    },{
                        "key": "N",
                        "value": "No"
                    }
                ],
                "placeholder": "",
                "title": "¿El herido es el mismo asegurado?",
                "method" : "loadWitness",
                "idService": "@radioButtonWitness",
                "idSaveLocal": "@radioButtonWitness"
            }
        },
        {
            "id": "@inputNameRegisterWitness",
            "type": "InputText",
            "urlPreload": "",
            "extras": {
                "type": "text",
                "validators" : [
                    "required"
                ],
                "title": "Nombres",
                "subTitle": "Ejemplo: Carlos Andrés",
                "placeholder": "",
                "idService": "@inputNameRegisterWitness",
                "idSaveLocal": "@inputNameRegisterWitness"
            }
        },
        {
            "id": "@inputLastNameRegisterWitness",
            "type": "InputText",
            "urlPreload": "",
            "extras": {
                "type": "text",
                "validators" : [
                    "required"
                ],
                "title": "Apellidos",
                "subTitle": "Ejemplo: Rodriguez Velasquez",
                "placeholder": "",
                "idService": "@inputLastNameRegisterWitness",
                "idSaveLocal": "@inputLastNameRegisterWitness"
            }
        },
        
        {
            "id": "@inputCellPhoneRegisterWitness",
            "type": "InputText",
            "urlPreload": "",
            "extras": {
                "type": "phone",
                "validators" : [
                    "^0(?:[0-9](?:[ \\-])?){9}$"
                ],
                "title": "Teléfono celular",
                "subTitle": "Ejemplo: 09 69696969",
                "placeholder": "",
                "idService": "@inputCellPhoneRegisterWitness",
                "idSaveLocal": "@inputCellPhoneRegisterWitness"
            }
        },
        {
            "id": "@inputEmailRegisterWitness",
            "type": "InputText",
            "urlPreload": "",
            "extras": {
                "type": "email",
                "validators" : [
                    "email"
                ],
                "title": "Correo electrónico",
                "subTitle": "Ejemplo: Carlosrod@correo.com",
                "placeholder": "",
                "idService": "@inputEmailRegisterWitness",
                "idSaveLocal": "@inputEmailRegisterWitness"
            }
        },
        {
            "id": "@inputLocationCar",
            "type": "TextArea",
            "urlPreload": "",
            "extras": {
                "title": "Ubicación dentro del vehículo",
                "subTitle": "Describe la parte del vehículo en donde te encontrabas al momento del siniestro",
                "placeholder": "",
                "idService": "@inputLocationCar",
                "idSaveLocal": "@inputLocationCar"
            }
        },
        {
            "id": "@buttonNextStep",
            "type": "Button",
            "urlPreload": "",
            "extras": {
                "type": "button-asertive group",
                "title": "Guardar Información",
                "method": "save"
            }
        }
    ]
}