<?xml version="1.0" encoding="UTF-8"?>
<svg width="23px" height="21px" viewBox="0 0 23 21" version="1.1" xmlns="http://www.w3.org/2000/svg" xmlns:xlink="http://www.w3.org/1999/xlink">
    <title>6F158B6E-6817-407B-98E9-5193A52074F5</title>
    <defs>
        <filter id="filter-1">
            <feColorMatrix in="SourceGraphic" type="matrix" values="0 0 0 0 0.156863 0 0 0 0 0.388235 0 0 0 0 0.619608 0 0 0 1.000000 0"></feColorMatrix>
        </filter>
    </defs>
    <g id="FNOL---Zurich-Tablet-[768]" stroke="none" stroke-width="1" fill="none" fill-rule="evenodd">
        <g transform="translate(-107.000000, -3153.000000)" id="clip-de-papel-de-metal" filter="url(#filter-1)">
            <g transform="translate(107.000000, 3153.000000)">
                <path d="M4.07869227,21 C2.98829993,21 1.96372124,20.578273 1.19313554,19.8136026 C-0.397711846,18.234494 -0.397711846,15.6649954 1.19313554,14.0860724 L13.8080267,1.56513463 C14.8243261,0.55538533 16.1769907,0 17.6151149,0 C19.053473,0 20.4060908,0.55538533 21.422437,1.56513463 C22.4397186,2.57460539 23,3.91634169 23,5.34363974 C23,6.77121634 22.4403735,8.11290622 21.4232789,9.12177344 L11.4926211,18.9770659 C11.1944717,19.2728412 10.7116512,19.2728412 10.4136421,18.9770659 C10.1154927,18.6811978 10.1154927,18.2019963 10.4136421,17.9060353 L20.344066,8.0507428 C21.0729744,7.32743733 21.4738436,6.36592386 21.4738436,5.34363974 C21.4738436,4.32154132 21.0721325,3.35942433 20.3434112,2.636026 C19.6145028,1.91272052 18.6457277,1.51467038 17.6151149,1.51467038 C16.5846892,1.51467038 15.6159142,1.91272052 14.8870058,2.636026 L2.27225489,15.1569638 C1.27672402,16.1458682 1.27672402,17.7538997 2.27225489,18.742572 C3.23794276,19.6997214 4.91925468,19.6997214 5.88489577,18.742572 L14.3555851,10.3347261 C14.5859095,10.1061281 14.7178642,9.78969359 14.7178642,9.46713092 C14.7178642,9.140065 14.5889967,8.83175487 14.3549302,8.59948932 C13.8735597,8.12172702 13.0888477,8.12028784 12.6074772,8.59948932 L6.82237778,14.3418756 C6.52441548,14.6378366 6.04136106,14.6378366 5.74339876,14.3418756 C5.44524935,14.0461003 5.44524935,13.5667131 5.74339876,13.2710306 L11.5283111,7.52864438 C12.60439,6.46067781 14.3564271,6.46067781 15.433956,7.52864438 C15.9563957,8.04702878 16.2439738,8.73570102 16.2439738,9.46717734 C16.2439738,10.1889508 15.9489116,10.895311 15.4347512,11.4056175 L6.96406189,19.8136026 C6.19347619,20.578273 5.16885073,21 4.07869227,21 Z" id="Path" fill="#000000" fill-rule="nonzero"></path>
            </g>
        </g>
    </g>
</svg>